Data Science Project
…
Location: There are a lot of resources needed to help for an effective operation, and I would like to highlight one them which is the equipment model. We would like to know how often this material is used in various state, which you give an idea about how to sock our warehouse at different state. The table below shows the different combination of various model parts frequent usage at different states.

## # A tibble: 687 x 3
## # Groups:   ModelNumber [396]
##    ModelNumber       AloState count
##    <chr>             <chr>    <int>
##  1 PROLIANT BL460CG8 IL          17
##  2 PROLIANT DL380PG8 IL           9
##  3 PROLIANT BL460CG7 OH           8
##  4 CP-7925G-A-K9     OH           7
##  5 POWEREDGE 2950    OH           7
##  6 POWEREDGE R710    OH           7
##  7 PROLIANT BL460CG6 GA           7
##  8 PROLIANT BL460CG7 PA           7
##  9 PROLIANT DL360G7  IL           7
## 10 PROLIANT DL380G5  MI           7
## # ... with 677 more rows

## # A tibble: 211 x 3
## # Groups:   AloState [37]
##    AloState PrimaryEngineer count
##    <chr>    <chr>           <int>
##  1 AL       8680                4
##  2 AL       8716                1
##  3 AZ       8719                3
##  4 AZ       <NA>                2
##  5 AZ       8675                1
##  6 AZ       8745                1
##  7 AZ       8930                1
##  8 CA       8930                3
##  9 CA       8927                2
## 10 CA       8514                1
## # ... with 201 more rows
…
